{
  "database": {
    "name": "ShopAndCompare",
    "host": "127.0.0.1",
    "user": "root",
    "port": "3306"
  },
  "frontend": {
    "url": "https://www.dev.shopandcompare.curtismoxebo.com"
  },
  "logs": {
    "path": "logs"
  },
  "port": 3030
}
